<?xml version="1.0" standalone="no"?>
<!DOCTYPE svg PUBLIC "-//W3C//DTD SVG 1.1//EN" "http://www.w3.org/Graphics/SVG/1.1/DTD/svg11.dtd" >
<svg xmlns="http://www.w3.org/2000/svg">
<metadata>Generated by IcoMoon</metadata>
<defs>
<font id="skills" horiz-adv-x="1024">
<font-face units-per-em="1024" ascent="960" descent="-64" />
<missing-glyph horiz-adv-x="1024" />
<glyph unicode="&#x20;" horiz-adv-x="512" d="" />
<glyph unicode="&#xe909;" glyph-name="skills_ikonas-06" horiz-adv-x="620" d="M553.967 960l-66.308-174.584v-691.62h-315.593l172.066 172.066v314.754c25.18 5.036 44.485 26.859 44.485 53.718 0 30.216-24.341 54.557-54.557 54.557s-54.557-24.341-54.557-54.557c0-26.859 19.305-48.682 44.485-53.718v-306.361l-238.374-238.374c-8.393 5.875-19.305 9.233-31.056 9.233-30.216 0-54.557-24.341-54.557-54.557s24.341-54.557 54.557-54.557 54.557 24.341 54.557 54.557c0 11.751-3.357 21.823-9.233 31.056l52.039 52.039h335.738v-93.167h132.616v804.931l-66.308 174.584zM299.646 634.334c0 19.305 15.108 34.413 34.413 34.413s34.413-15.108 34.413-34.413c0-19.305-15.108-34.413-34.413-34.413s-34.413 15.948-34.413 34.413zM54.557-43.856c-19.305 0-34.413 15.108-34.413 34.413s15.108 34.413 34.413 34.413 34.413-15.108 34.413-34.413c0-18.466-15.108-34.413-34.413-34.413zM512.839 793.81l14.269 36.931h55.397l14.269-36.931h-83.934zM574.111 850.885h-39.449l19.305 52.039 20.144-52.039zM507.803 773.666h36.092v-679.869h-35.252v679.869zM600.131 0.63h-92.328v73.023h91.489v-73.023zM564.039 93.797v679.869h36.092v-679.869h-36.092z" />
</font></defs></svg>